-- Merging decision tree log ---
manifest
ADDED from C:\Users\windows\Documents\ontrack-onroad-as-expert-solidcopy\app\src\main\AndroidManifest.xml:2:1-158:12
	xmlns:android
		ADDED from C:\Users\windows\Documents\ontrack-onroad-as-expert-solidcopy\app\src\main\AndroidManifest.xml:2:11-69
	package
		ADDED from C:\Users\windows\Documents\ontrack-onroad-as-expert-solidcopy\app\src\main\AndroidManifest.xml:3:5-50
		INJECTED from C:\Users\windows\Documents\ontrack-onroad-as-expert-solidcopy\app\src\main\AndroidManifest.xml
		INJECTED from C:\Users\windows\Documents\ontrack-onroad-as-expert-solidcopy\app\src\main\AndroidManifest.xml
	android:versionName
		INJECTED from C:\Users\windows\Documents\ontrack-onroad-as-expert-solidcopy\app\src\main\AndroidManifest.xml
		INJECTED from C:\Users\windows\Documents\ontrack-onroad-as-expert-solidcopy\app\src\main\AndroidManifest.xml
	android:versionCode
		INJECTED from C:\Users\windows\Documents\ontrack-onroad-as-expert-solidcopy\app\src\main\AndroidManifest.xml
		INJECTED from C:\Users\windows\Documents\ontrack-onroad-as-expert-solidcopy\app\src\main\AndroidManifest.xml
uses-permission#android.permission.INTERNET
ADDED from C:\Users\windows\Documents\ontrack-onroad-as-expert-solidcopy\app\src\main\AndroidManifest.xml:6:5-67
MERGED from [com.google.android.gms:play-services-gcm:8.1.0] C:\Users\windows\Documents\ontrack-onroad-as-expert-solidcopy\app\build\intermediates\exploded-aar\com.google.android.gms\play-services-gcm\8.1.0\AndroidManifest.xml:22:5-67
MERGED from [com.google.android.gms:play-services-maps:8.1.0] C:\Users\windows\Documents\ontrack-onroad-as-expert-solidcopy\app\build\intermediates\exploded-aar\com.google.android.gms\play-services-maps\8.1.0\AndroidManifest.xml:21:5-66
MERGED from [com.mapbox.mapboxsdk:mapbox-android-sdk:3.2.0] C:\Users\windows\Documents\ontrack-onroad-as-expert-solidcopy\app\build\intermediates\exploded-aar\com.mapbox.mapboxsdk\mapbox-android-sdk\3.2.0\AndroidManifest.xml:13:5-67
	android:name
		ADDED from C:\Users\windows\Documents\ontrack-onroad-as-expert-solidcopy\app\src\main\AndroidManifest.xml:6:22-64
uses-permission#android.permission.ACCESS_NETWORK_STATE
ADDED from C:\Users\windows\Documents\ontrack-onroad-as-expert-solidcopy\app\src\main\AndroidManifest.xml:7:5-79
MERGED from [com.google.android.gms:play-services-maps:8.1.0] C:\Users\windows\Documents\ontrack-onroad-as-expert-solidcopy\app\build\intermediates\exploded-aar\com.google.android.gms\play-services-maps\8.1.0\AndroidManifest.xml:20:5-78
MERGED from [com.mapbox.mapboxsdk:mapbox-android-sdk:3.2.0] C:\Users\windows\Documents\ontrack-onroad-as-expert-solidcopy\app\build\intermediates\exploded-aar\com.mapbox.mapboxsdk\mapbox-android-sdk\3.2.0\AndroidManifest.xml:14:5-79
	android:name
		ADDED from C:\Users\windows\Documents\ontrack-onroad-as-expert-solidcopy\app\src\main\AndroidManifest.xml:7:22-76
uses-permission#com.google.android.providers.gsf.permission.READ_GSERVICES
ADDED from C:\Users\windows\Documents\ontrack-onroad-as-expert-solidcopy\app\src\main\AndroidManifest.xml:8:5-98
	android:name
		ADDED from C:\Users\windows\Documents\ontrack-onroad-as-expert-solidcopy\app\src\main\AndroidManifest.xml:8:22-95
uses-permission#android.permission.WRITE_EXTERNAL_STORAGE
ADDED from C:\Users\windows\Documents\ontrack-onroad-as-expert-solidcopy\app\src\main\AndroidManifest.xml:9:5-81
MERGED from [com.google.android.gms:play-services-maps:8.1.0] C:\Users\windows\Documents\ontrack-onroad-as-expert-solidcopy\app\build\intermediates\exploded-aar\com.google.android.gms\play-services-maps\8.1.0\AndroidManifest.xml:22:5-80
	android:name
		ADDED from C:\Users\windows\Documents\ontrack-onroad-as-expert-solidcopy\app\src\main\AndroidManifest.xml:9:22-78
uses-permission#android.permission.ACCESS_COARSE_LOCATION
ADDED from C:\Users\windows\Documents\ontrack-onroad-as-expert-solidcopy\app\src\main\AndroidManifest.xml:10:5-81
	android:name
		ADDED from C:\Users\windows\Documents\ontrack-onroad-as-expert-solidcopy\app\src\main\AndroidManifest.xml:10:22-78
uses-permission#android.permission.ACCESS_FINE_LOCATION
ADDED from C:\Users\windows\Documents\ontrack-onroad-as-expert-solidcopy\app\src\main\AndroidManifest.xml:11:5-79
	android:name
		ADDED from C:\Users\windows\Documents\ontrack-onroad-as-expert-solidcopy\app\src\main\AndroidManifest.xml:11:22-76
uses-permission#android.permission.WAKE_LOCK
ADDED from C:\Users\windows\Documents\ontrack-onroad-as-expert-solidcopy\app\src\main\AndroidManifest.xml:12:5-68
	android:name
		ADDED from C:\Users\windows\Documents\ontrack-onroad-as-expert-solidcopy\app\src\main\AndroidManifest.xml:12:22-65
uses-permission#com.google.android.c2dm.permission.RECEIVE
ADDED from C:\Users\windows\Documents\ontrack-onroad-as-expert-solidcopy\app\src\main\AndroidManifest.xml:13:5-82
MERGED from [com.google.android.gms:play-services-gcm:8.1.0] C:\Users\windows\Documents\ontrack-onroad-as-expert-solidcopy\app\build\intermediates\exploded-aar\com.google.android.gms\play-services-gcm\8.1.0\AndroidManifest.xml:21:5-82
	android:name
		ADDED from C:\Users\windows\Documents\ontrack-onroad-as-expert-solidcopy\app\src\main\AndroidManifest.xml:13:22-79
uses-permission#android.permission.VIBRATE
ADDED from C:\Users\windows\Documents\ontrack-onroad-as-expert-solidcopy\app\src\main\AndroidManifest.xml:14:5-66
	android:name
		ADDED from C:\Users\windows\Documents\ontrack-onroad-as-expert-solidcopy\app\src\main\AndroidManifest.xml:14:22-63
uses-permission#android.permission.GET_ACCOUNTS
ADDED from C:\Users\windows\Documents\ontrack-onroad-as-expert-solidcopy\app\src\main\AndroidManifest.xml:15:5-71
	android:name
		ADDED from C:\Users\windows\Documents\ontrack-onroad-as-expert-solidcopy\app\src\main\AndroidManifest.xml:15:22-68
uses-permission#android.permission.READ_PHONE_STATE
ADDED from C:\Users\windows\Documents\ontrack-onroad-as-expert-solidcopy\app\src\main\AndroidManifest.xml:16:5-75
	android:name
		ADDED from C:\Users\windows\Documents\ontrack-onroad-as-expert-solidcopy\app\src\main\AndroidManifest.xml:16:22-72
uses-permission#android.permission.CAMERA
ADDED from C:\Users\windows\Documents\ontrack-onroad-as-expert-solidcopy\app\src\main\AndroidManifest.xml:17:5-65
	android:name
		ADDED from C:\Users\windows\Documents\ontrack-onroad-as-expert-solidcopy\app\src\main\AndroidManifest.xml:17:22-62
uses-feature#android.hardware.camera
ADDED from C:\Users\windows\Documents\ontrack-onroad-as-expert-solidcopy\app\src\main\AndroidManifest.xml:19:5-60
	android:name
		ADDED from C:\Users\windows\Documents\ontrack-onroad-as-expert-solidcopy\app\src\main\AndroidManifest.xml:19:19-57
permission#otr.ontrack_onroad_debug.gcm.permission.C2D_MESSAGE
ADDED from C:\Users\windows\Documents\ontrack-onroad-as-expert-solidcopy\app\src\main\AndroidManifest.xml:25:5-27:47
	android:protectionLevel
		ADDED from C:\Users\windows\Documents\ontrack-onroad-as-expert-solidcopy\app\src\main\AndroidManifest.xml:27:9-44
	android:name
		ADDED from C:\Users\windows\Documents\ontrack-onroad-as-expert-solidcopy\app\src\main\AndroidManifest.xml:26:9-75
uses-permission#com.example.gcm.permission.C2D_MESSAGE
ADDED from C:\Users\windows\Documents\ontrack-onroad-as-expert-solidcopy\app\src\main\AndroidManifest.xml:29:5-78
	android:name
		ADDED from C:\Users\windows\Documents\ontrack-onroad-as-expert-solidcopy\app\src\main\AndroidManifest.xml:29:22-75
uses-permission#android.permission.READ_EXTERNAL_STORAGE
ADDED from C:\Users\windows\Documents\ontrack-onroad-as-expert-solidcopy\app\src\main\AndroidManifest.xml:31:5-80
	android:name
		ADDED from C:\Users\windows\Documents\ontrack-onroad-as-expert-solidcopy\app\src\main\AndroidManifest.xml:31:22-77
application
ADDED from C:\Users\windows\Documents\ontrack-onroad-as-expert-solidcopy\app\src\main\AndroidManifest.xml:37:5-156:19
MERGED from [com.android.support:appcompat-v7:23.1.1] C:\Users\windows\Documents\ontrack-onroad-as-expert-solidcopy\app\build\intermediates\exploded-aar\com.android.support\appcompat-v7\23.1.1\AndroidManifest.xml:22:5-20
MERGED from [com.android.support:support-v4:23.1.1] C:\Users\windows\Documents\ontrack-onroad-as-expert-solidcopy\app\build\intermediates\exploded-aar\com.android.support\support-v4\23.1.1\AndroidManifest.xml:22:5-20
MERGED from [com.google.android.gms:play-services-gcm:8.1.0] C:\Users\windows\Documents\ontrack-onroad-as-expert-solidcopy\app\build\intermediates\exploded-aar\com.google.android.gms\play-services-gcm\8.1.0\AndroidManifest.xml:24:5-20
MERGED from [com.google.android.gms:play-services-basement:8.1.0] C:\Users\windows\Documents\ontrack-onroad-as-expert-solidcopy\app\build\intermediates\exploded-aar\com.google.android.gms\play-services-basement\8.1.0\AndroidManifest.xml:20:5-24:19
MERGED from [com.android.support:support-v4:23.1.1] C:\Users\windows\Documents\ontrack-onroad-as-expert-solidcopy\app\build\intermediates\exploded-aar\com.android.support\support-v4\23.1.1\AndroidManifest.xml:22:5-20
MERGED from [com.google.android.gms:play-services-location:8.1.0] C:\Users\windows\Documents\ontrack-onroad-as-expert-solidcopy\app\build\intermediates\exploded-aar\com.google.android.gms\play-services-location\8.1.0\AndroidManifest.xml:19:5-20
MERGED from [com.google.android.gms:play-services-basement:8.1.0] C:\Users\windows\Documents\ontrack-onroad-as-expert-solidcopy\app\build\intermediates\exploded-aar\com.google.android.gms\play-services-basement\8.1.0\AndroidManifest.xml:20:5-24:19
MERGED from [com.android.support:support-v4:23.1.1] C:\Users\windows\Documents\ontrack-onroad-as-expert-solidcopy\app\build\intermediates\exploded-aar\com.android.support\support-v4\23.1.1\AndroidManifest.xml:22:5-20
MERGED from [com.google.android.gms:play-services-maps:8.1.0] C:\Users\windows\Documents\ontrack-onroad-as-expert-solidcopy\app\build\intermediates\exploded-aar\com.google.android.gms\play-services-maps\8.1.0\AndroidManifest.xml:28:5-20
MERGED from [com.google.android.gms:play-services-basement:8.1.0] C:\Users\windows\Documents\ontrack-onroad-as-expert-solidcopy\app\build\intermediates\exploded-aar\com.google.android.gms\play-services-basement\8.1.0\AndroidManifest.xml:20:5-24:19
MERGED from [com.android.support:support-v4:23.1.1] C:\Users\windows\Documents\ontrack-onroad-as-expert-solidcopy\app\build\intermediates\exploded-aar\com.android.support\support-v4\23.1.1\AndroidManifest.xml:22:5-20
MERGED from [com.android.support:design:23.1.1] C:\Users\windows\Documents\ontrack-onroad-as-expert-solidcopy\app\build\intermediates\exploded-aar\com.android.support\design\23.1.1\AndroidManifest.xml:22:5-20
MERGED from [com.android.support:appcompat-v7:23.1.1] C:\Users\windows\Documents\ontrack-onroad-as-expert-solidcopy\app\build\intermediates\exploded-aar\com.android.support\appcompat-v7\23.1.1\AndroidManifest.xml:22:5-20
MERGED from [com.android.support:support-v4:23.1.1] C:\Users\windows\Documents\ontrack-onroad-as-expert-solidcopy\app\build\intermediates\exploded-aar\com.android.support\support-v4\23.1.1\AndroidManifest.xml:22:5-20
MERGED from [com.android.support:support-v4:23.1.1] C:\Users\windows\Documents\ontrack-onroad-as-expert-solidcopy\app\build\intermediates\exploded-aar\com.android.support\support-v4\23.1.1\AndroidManifest.xml:22:5-20
MERGED from [com.android.support:support-v4:23.1.1] C:\Users\windows\Documents\ontrack-onroad-as-expert-solidcopy\app\build\intermediates\exploded-aar\com.android.support\support-v4\23.1.1\AndroidManifest.xml:22:5-20
MERGED from [com.android.support:support-v4:23.1.1] C:\Users\windows\Documents\ontrack-onroad-as-expert-solidcopy\app\build\intermediates\exploded-aar\com.android.support\support-v4\23.1.1\AndroidManifest.xml:22:5-20
	android:label
		ADDED from C:\Users\windows\Documents\ontrack-onroad-as-expert-solidcopy\app\src\main\AndroidManifest.xml:42:9-41
	android:allowBackup
		ADDED from C:\Users\windows\Documents\ontrack-onroad-as-expert-solidcopy\app\src\main\AndroidManifest.xml:39:9-35
	android:icon
		ADDED from C:\Users\windows\Documents\ontrack-onroad-as-expert-solidcopy\app\src\main\AndroidManifest.xml:41:9-45
	android:theme
		ADDED from C:\Users\windows\Documents\ontrack-onroad-as-expert-solidcopy\app\src\main\AndroidManifest.xml:44:9-44
	android:hardwareAccelerated
		ADDED from C:\Users\windows\Documents\ontrack-onroad-as-expert-solidcopy\app\src\main\AndroidManifest.xml:40:9-43
	android:largeHeap
		ADDED from C:\Users\windows\Documents\ontrack-onroad-as-expert-solidcopy\app\src\main\AndroidManifest.xml:43:9-33
	android:name
		ADDED from C:\Users\windows\Documents\ontrack-onroad-as-expert-solidcopy\app\src\main\AndroidManifest.xml:38:9-68
meta-data#com.google.android.gms.version
ADDED from C:\Users\windows\Documents\ontrack-onroad-as-expert-solidcopy\app\src\main\AndroidManifest.xml:45:9-47:69
MERGED from [com.google.android.gms:play-services-basement:8.1.0] C:\Users\windows\Documents\ontrack-onroad-as-expert-solidcopy\app\build\intermediates\exploded-aar\com.google.android.gms\play-services-basement\8.1.0\AndroidManifest.xml:21:9-23:69
MERGED from [com.google.android.gms:play-services-basement:8.1.0] C:\Users\windows\Documents\ontrack-onroad-as-expert-solidcopy\app\build\intermediates\exploded-aar\com.google.android.gms\play-services-basement\8.1.0\AndroidManifest.xml:21:9-23:69
MERGED from [com.google.android.gms:play-services-basement:8.1.0] C:\Users\windows\Documents\ontrack-onroad-as-expert-solidcopy\app\build\intermediates\exploded-aar\com.google.android.gms\play-services-basement\8.1.0\AndroidManifest.xml:21:9-23:69
	android:name
		ADDED from C:\Users\windows\Documents\ontrack-onroad-as-expert-solidcopy\app\src\main\AndroidManifest.xml:46:13-58
	android:value
		ADDED from C:\Users\windows\Documents\ontrack-onroad-as-expert-solidcopy\app\src\main\AndroidManifest.xml:47:13-66
receiver#otr.ontrack_onroad.services.GcmBroadcastReceiver
ADDED from C:\Users\windows\Documents\ontrack-onroad-as-expert-solidcopy\app\src\main\AndroidManifest.xml:49:9-57:20
	android:permission
		ADDED from C:\Users\windows\Documents\ontrack-onroad-as-expert-solidcopy\app\src\main\AndroidManifest.xml:51:13-73
	android:name
		ADDED from C:\Users\windows\Documents\ontrack-onroad-as-expert-solidcopy\app\src\main\AndroidManifest.xml:50:13-76
intent-filter#com.example.gcm+com.google.android.c2dm.intent.RECEIVE
ADDED from C:\Users\windows\Documents\ontrack-onroad-as-expert-solidcopy\app\src\main\AndroidManifest.xml:52:13-56:29
action#com.google.android.c2dm.intent.RECEIVE
ADDED from C:\Users\windows\Documents\ontrack-onroad-as-expert-solidcopy\app\src\main\AndroidManifest.xml:53:17-81
	android:name
		ADDED from C:\Users\windows\Documents\ontrack-onroad-as-expert-solidcopy\app\src\main\AndroidManifest.xml:53:25-78
category#com.example.gcm
ADDED from C:\Users\windows\Documents\ontrack-onroad-as-expert-solidcopy\app\src\main\AndroidManifest.xml:55:17-60
	android:name
		ADDED from C:\Users\windows\Documents\ontrack-onroad-as-expert-solidcopy\app\src\main\AndroidManifest.xml:55:27-57
service#otr.ontrack_onroad.application.OntrackPhoneStateService
ADDED from C:\Users\windows\Documents\ontrack-onroad-as-expert-solidcopy\app\src\main\AndroidManifest.xml:59:9-91
	android:name
		ADDED from C:\Users\windows\Documents\ontrack-onroad-as-expert-solidcopy\app\src\main\AndroidManifest.xml:59:18-88
service#otr.ontrack_onroad.services.GcmIntentService
ADDED from C:\Users\windows\Documents\ontrack-onroad-as-expert-solidcopy\app\src\main\AndroidManifest.xml:67:9-80
	android:name
		ADDED from C:\Users\windows\Documents\ontrack-onroad-as-expert-solidcopy\app\src\main\AndroidManifest.xml:67:18-77
activity#otr.ontrack_onroad_debug.activities.MainActivity
ADDED from C:\Users\windows\Documents\ontrack-onroad-as-expert-solidcopy\app\src\main\AndroidManifest.xml:69:9-74:20
	android:screenOrientation
		ADDED from C:\Users\windows\Documents\ontrack-onroad-as-expert-solidcopy\app\src\main\AndroidManifest.xml:73:13-56
	android:label
		ADDED from C:\Users\windows\Documents\ontrack-onroad-as-expert-solidcopy\app\src\main\AndroidManifest.xml:72:13-56
	android:icon
		ADDED from C:\Users\windows\Documents\ontrack-onroad-as-expert-solidcopy\app\src\main\AndroidManifest.xml:71:13-51
	android:name
		ADDED from C:\Users\windows\Documents\ontrack-onroad-as-expert-solidcopy\app\src\main\AndroidManifest.xml:70:13-76
activity#otr.ontrack_onroad_debug.activities.Login
ADDED from C:\Users\windows\Documents\ontrack-onroad-as-expert-solidcopy\app\src\main\AndroidManifest.xml:92:9-96:20
	android:screenOrientation
		ADDED from C:\Users\windows\Documents\ontrack-onroad-as-expert-solidcopy\app\src\main\AndroidManifest.xml:95:13-56
	android:label
		ADDED from C:\Users\windows\Documents\ontrack-onroad-as-expert-solidcopy\app\src\main\AndroidManifest.xml:94:13-57
	android:name
		ADDED from C:\Users\windows\Documents\ontrack-onroad-as-expert-solidcopy\app\src\main\AndroidManifest.xml:93:13-69
activity#otr.ontrack_onroad_debug.activities.RouteList
ADDED from C:\Users\windows\Documents\ontrack-onroad-as-expert-solidcopy\app\src\main\AndroidManifest.xml:97:9-101:20
	android:screenOrientation
		ADDED from C:\Users\windows\Documents\ontrack-onroad-as-expert-solidcopy\app\src\main\AndroidManifest.xml:100:13-56
	android:label
		ADDED from C:\Users\windows\Documents\ontrack-onroad-as-expert-solidcopy\app\src\main\AndroidManifest.xml:99:13-62
	android:name
		ADDED from C:\Users\windows\Documents\ontrack-onroad-as-expert-solidcopy\app\src\main\AndroidManifest.xml:98:13-73
activity#otr.ontrack_onroad_debug.activities.ChatList
ADDED from C:\Users\windows\Documents\ontrack-onroad-as-expert-solidcopy\app\src\main\AndroidManifest.xml:102:9-105:20
	android:label
		ADDED from C:\Users\windows\Documents\ontrack-onroad-as-expert-solidcopy\app\src\main\AndroidManifest.xml:104:13-63
	android:name
		ADDED from C:\Users\windows\Documents\ontrack-onroad-as-expert-solidcopy\app\src\main\AndroidManifest.xml:103:13-72
activity#otr.ontrack_onroad_debug.activities.Chat
ADDED from C:\Users\windows\Documents\ontrack-onroad-as-expert-solidcopy\app\src\main\AndroidManifest.xml:106:9-109:20
	android:label
		ADDED from C:\Users\windows\Documents\ontrack-onroad-as-expert-solidcopy\app\src\main\AndroidManifest.xml:108:13-56
	android:name
		ADDED from C:\Users\windows\Documents\ontrack-onroad-as-expert-solidcopy\app\src\main\AndroidManifest.xml:107:13-68
activity#otr.ontrack_onroad_debug.activities.RouteProfile
ADDED from C:\Users\windows\Documents\ontrack-onroad-as-expert-solidcopy\app\src\main\AndroidManifest.xml:110:9-113:20
	android:label
		ADDED from C:\Users\windows\Documents\ontrack-onroad-as-expert-solidcopy\app\src\main\AndroidManifest.xml:112:13-65
	android:name
		ADDED from C:\Users\windows\Documents\ontrack-onroad-as-expert-solidcopy\app\src\main\AndroidManifest.xml:111:13-76
activity#otr.ontrack_onroad_debug.activities.SplashScreen
ADDED from C:\Users\windows\Documents\ontrack-onroad-as-expert-solidcopy\app\src\main\AndroidManifest.xml:114:9-123:20
	android:screenOrientation
		ADDED from C:\Users\windows\Documents\ontrack-onroad-as-expert-solidcopy\app\src\main\AndroidManifest.xml:117:13-56
	android:label
		ADDED from C:\Users\windows\Documents\ontrack-onroad-as-expert-solidcopy\app\src\main\AndroidManifest.xml:116:13-65
	android:name
		ADDED from C:\Users\windows\Documents\ontrack-onroad-as-expert-solidcopy\app\src\main\AndroidManifest.xml:115:13-76
intent-filter#android.intent.action.MAIN+android.intent.category.LAUNCHER
ADDED from C:\Users\windows\Documents\ontrack-onroad-as-expert-solidcopy\app\src\main\AndroidManifest.xml:118:13-122:29
action#android.intent.action.MAIN
ADDED from C:\Users\windows\Documents\ontrack-onroad-as-expert-solidcopy\app\src\main\AndroidManifest.xml:119:17-69
	android:name
		ADDED from C:\Users\windows\Documents\ontrack-onroad-as-expert-solidcopy\app\src\main\AndroidManifest.xml:119:25-66
category#android.intent.category.LAUNCHER
ADDED from C:\Users\windows\Documents\ontrack-onroad-as-expert-solidcopy\app\src\main\AndroidManifest.xml:121:17-77
	android:name
		ADDED from C:\Users\windows\Documents\ontrack-onroad-as-expert-solidcopy\app\src\main\AndroidManifest.xml:121:27-74
activity#otr.ontrack_onroad_debug.activities.TrackableList
ADDED from C:\Users\windows\Documents\ontrack-onroad-as-expert-solidcopy\app\src\main\AndroidManifest.xml:124:9-128:20
	android:screenOrientation
		ADDED from C:\Users\windows\Documents\ontrack-onroad-as-expert-solidcopy\app\src\main\AndroidManifest.xml:127:13-56
	android:label
		ADDED from C:\Users\windows\Documents\ontrack-onroad-as-expert-solidcopy\app\src\main\AndroidManifest.xml:126:13-66
	android:name
		ADDED from C:\Users\windows\Documents\ontrack-onroad-as-expert-solidcopy\app\src\main\AndroidManifest.xml:125:13-77
activity#otr.ontrack_onroad_debug.activities.TrackableProfile
ADDED from C:\Users\windows\Documents\ontrack-onroad-as-expert-solidcopy\app\src\main\AndroidManifest.xml:129:9-133:20
	android:screenOrientation
		ADDED from C:\Users\windows\Documents\ontrack-onroad-as-expert-solidcopy\app\src\main\AndroidManifest.xml:132:13-56
	android:label
		ADDED from C:\Users\windows\Documents\ontrack-onroad-as-expert-solidcopy\app\src\main\AndroidManifest.xml:131:13-69
	android:name
		ADDED from C:\Users\windows\Documents\ontrack-onroad-as-expert-solidcopy\app\src\main\AndroidManifest.xml:130:13-80
activity#otr.ontrack_onroad_debug.activities.NotificationLoader
ADDED from C:\Users\windows\Documents\ontrack-onroad-as-expert-solidcopy\app\src\main\AndroidManifest.xml:134:9-138:20
	android:screenOrientation
		ADDED from C:\Users\windows\Documents\ontrack-onroad-as-expert-solidcopy\app\src\main\AndroidManifest.xml:137:13-56
	android:label
		ADDED from C:\Users\windows\Documents\ontrack-onroad-as-expert-solidcopy\app\src\main\AndroidManifest.xml:136:13-71
	android:name
		ADDED from C:\Users\windows\Documents\ontrack-onroad-as-expert-solidcopy\app\src\main\AndroidManifest.xml:135:13-82
activity#otr.ontrack_onroad_debug.activities.EventList
ADDED from C:\Users\windows\Documents\ontrack-onroad-as-expert-solidcopy\app\src\main\AndroidManifest.xml:139:9-143:20
	android:screenOrientation
		ADDED from C:\Users\windows\Documents\ontrack-onroad-as-expert-solidcopy\app\src\main\AndroidManifest.xml:142:13-56
	android:label
		ADDED from C:\Users\windows\Documents\ontrack-onroad-as-expert-solidcopy\app\src\main\AndroidManifest.xml:141:13-62
	android:name
		ADDED from C:\Users\windows\Documents\ontrack-onroad-as-expert-solidcopy\app\src\main\AndroidManifest.xml:140:13-73
activity#otr.ontrack_onroad_debug.activities.FreeMode
ADDED from C:\Users\windows\Documents\ontrack-onroad-as-expert-solidcopy\app\src\main\AndroidManifest.xml:145:9-149:20
	android:screenOrientation
		ADDED from C:\Users\windows\Documents\ontrack-onroad-as-expert-solidcopy\app\src\main\AndroidManifest.xml:148:13-56
	android:label
		ADDED from C:\Users\windows\Documents\ontrack-onroad-as-expert-solidcopy\app\src\main\AndroidManifest.xml:147:13-61
	android:name
		ADDED from C:\Users\windows\Documents\ontrack-onroad-as-expert-solidcopy\app\src\main\AndroidManifest.xml:146:13-72
service#otr.ontrack_onroad.services.GPSService
ADDED from C:\Users\windows\Documents\ontrack-onroad-as-expert-solidcopy\app\src\main\AndroidManifest.xml:151:9-155:19
	android:exported
		ADDED from C:\Users\windows\Documents\ontrack-onroad-as-expert-solidcopy\app\src\main\AndroidManifest.xml:154:13-36
	android:enabled
		ADDED from C:\Users\windows\Documents\ontrack-onroad-as-expert-solidcopy\app\src\main\AndroidManifest.xml:153:13-35
	android:name
		ADDED from C:\Users\windows\Documents\ontrack-onroad-as-expert-solidcopy\app\src\main\AndroidManifest.xml:152:13-66
uses-sdk
INJECTED from C:\Users\windows\Documents\ontrack-onroad-as-expert-solidcopy\app\src\main\AndroidManifest.xml reason: use-sdk injection requested
MERGED from [com.android.support:appcompat-v7:23.1.1] C:\Users\windows\Documents\ontrack-onroad-as-expert-solidcopy\app\build\intermediates\exploded-aar\com.android.support\appcompat-v7\23.1.1\AndroidManifest.xml:20:5-43
MERGED from [com.android.support:support-v4:23.1.1] C:\Users\windows\Documents\ontrack-onroad-as-expert-solidcopy\app\build\intermediates\exploded-aar\com.android.support\support-v4\23.1.1\AndroidManifest.xml:20:5-43
MERGED from [com.google.android.gms:play-services-gcm:8.1.0] C:\Users\windows\Documents\ontrack-onroad-as-expert-solidcopy\app\build\intermediates\exploded-aar\com.google.android.gms\play-services-gcm\8.1.0\AndroidManifest.xml:18:5-42
MERGED from [com.google.android.gms:play-services-base:8.1.0] C:\Users\windows\Documents\ontrack-onroad-as-expert-solidcopy\app\build\intermediates\exploded-aar\com.google.android.gms\play-services-base\8.1.0\AndroidManifest.xml:18:5-42
MERGED from [com.google.android.gms:play-services-basement:8.1.0] C:\Users\windows\Documents\ontrack-onroad-as-expert-solidcopy\app\build\intermediates\exploded-aar\com.google.android.gms\play-services-basement\8.1.0\AndroidManifest.xml:18:5-42
MERGED from [com.android.support:support-v4:23.1.1] C:\Users\windows\Documents\ontrack-onroad-as-expert-solidcopy\app\build\intermediates\exploded-aar\com.android.support\support-v4\23.1.1\AndroidManifest.xml:20:5-43
MERGED from [com.google.android.gms:play-services-location:8.1.0] C:\Users\windows\Documents\ontrack-onroad-as-expert-solidcopy\app\build\intermediates\exploded-aar\com.google.android.gms\play-services-location\8.1.0\AndroidManifest.xml:18:5-42
MERGED from [com.google.android.gms:play-services-base:8.1.0] C:\Users\windows\Documents\ontrack-onroad-as-expert-solidcopy\app\build\intermediates\exploded-aar\com.google.android.gms\play-services-base\8.1.0\AndroidManifest.xml:18:5-42
MERGED from [com.google.android.gms:play-services-basement:8.1.0] C:\Users\windows\Documents\ontrack-onroad-as-expert-solidcopy\app\build\intermediates\exploded-aar\com.google.android.gms\play-services-basement\8.1.0\AndroidManifest.xml:18:5-42
MERGED from [com.android.support:support-v4:23.1.1] C:\Users\windows\Documents\ontrack-onroad-as-expert-solidcopy\app\build\intermediates\exploded-aar\com.android.support\support-v4\23.1.1\AndroidManifest.xml:20:5-43
MERGED from [com.google.android.gms:play-services-maps:8.1.0] C:\Users\windows\Documents\ontrack-onroad-as-expert-solidcopy\app\build\intermediates\exploded-aar\com.google.android.gms\play-services-maps\8.1.0\AndroidManifest.xml:27:5-42
MERGED from [com.google.android.gms:play-services-base:8.1.0] C:\Users\windows\Documents\ontrack-onroad-as-expert-solidcopy\app\build\intermediates\exploded-aar\com.google.android.gms\play-services-base\8.1.0\AndroidManifest.xml:18:5-42
MERGED from [com.google.android.gms:play-services-basement:8.1.0] C:\Users\windows\Documents\ontrack-onroad-as-expert-solidcopy\app\build\intermediates\exploded-aar\com.google.android.gms\play-services-basement\8.1.0\AndroidManifest.xml:18:5-42
MERGED from [com.android.support:support-v4:23.1.1] C:\Users\windows\Documents\ontrack-onroad-as-expert-solidcopy\app\build\intermediates\exploded-aar\com.android.support\support-v4\23.1.1\AndroidManifest.xml:20:5-43
MERGED from [com.mapbox.mapboxsdk:mapbox-android-sdk:3.2.0] C:\Users\windows\Documents\ontrack-onroad-as-expert-solidcopy\app\build\intermediates\exploded-aar\com.mapbox.mapboxsdk\mapbox-android-sdk\3.2.0\AndroidManifest.xml:5:5-7:41
MERGED from [com.android.support:design:23.1.1] C:\Users\windows\Documents\ontrack-onroad-as-expert-solidcopy\app\build\intermediates\exploded-aar\com.android.support\design\23.1.1\AndroidManifest.xml:20:5-43
MERGED from [com.android.support:appcompat-v7:23.1.1] C:\Users\windows\Documents\ontrack-onroad-as-expert-solidcopy\app\build\intermediates\exploded-aar\com.android.support\appcompat-v7\23.1.1\AndroidManifest.xml:20:5-43
MERGED from [com.android.support:support-v4:23.1.1] C:\Users\windows\Documents\ontrack-onroad-as-expert-solidcopy\app\build\intermediates\exploded-aar\com.android.support\support-v4\23.1.1\AndroidManifest.xml:20:5-43
MERGED from [com.android.support:recyclerview-v7:23.1.1] C:\Users\windows\Documents\ontrack-onroad-as-expert-solidcopy\app\build\intermediates\exploded-aar\com.android.support\recyclerview-v7\23.1.1\AndroidManifest.xml:20:5-43
MERGED from [com.android.support:support-v4:23.1.1] C:\Users\windows\Documents\ontrack-onroad-as-expert-solidcopy\app\build\intermediates\exploded-aar\com.android.support\support-v4\23.1.1\AndroidManifest.xml:20:5-43
MERGED from [com.android.support:support-v4:23.1.1] C:\Users\windows\Documents\ontrack-onroad-as-expert-solidcopy\app\build\intermediates\exploded-aar\com.android.support\support-v4\23.1.1\AndroidManifest.xml:20:5-43
MERGED from [com.android.support:support-v4:23.1.1] C:\Users\windows\Documents\ontrack-onroad-as-expert-solidcopy\app\build\intermediates\exploded-aar\com.android.support\support-v4\23.1.1\AndroidManifest.xml:20:5-43
	android:targetSdkVersion
		INJECTED from C:\Users\windows\Documents\ontrack-onroad-as-expert-solidcopy\app\src\main\AndroidManifest.xml
		INJECTED from C:\Users\windows\Documents\ontrack-onroad-as-expert-solidcopy\app\src\main\AndroidManifest.xml
	android:minSdkVersion
		INJECTED from C:\Users\windows\Documents\ontrack-onroad-as-expert-solidcopy\app\src\main\AndroidManifest.xml
		INJECTED from C:\Users\windows\Documents\ontrack-onroad-as-expert-solidcopy\app\src\main\AndroidManifest.xml
uses-feature#0x00020000
ADDED from [com.google.android.gms:play-services-maps:8.1.0] C:\Users\windows\Documents\ontrack-onroad-as-expert-solidcopy\app\build\intermediates\exploded-aar\com.google.android.gms\play-services-maps\8.1.0\AndroidManifest.xml:23:5-25:33
MERGED from [com.mapbox.mapboxsdk:mapbox-android-sdk:3.2.0] C:\Users\windows\Documents\ontrack-onroad-as-expert-solidcopy\app\build\intermediates\exploded-aar\com.mapbox.mapboxsdk\mapbox-android-sdk\3.2.0\AndroidManifest.xml:9:5-11:35
	android:required
		ADDED from [com.google.android.gms:play-services-maps:8.1.0] C:\Users\windows\Documents\ontrack-onroad-as-expert-solidcopy\app\build\intermediates\exploded-aar\com.google.android.gms\play-services-maps\8.1.0\AndroidManifest.xml:25:8-31
	android:glEsVersion
		ADDED from [com.google.android.gms:play-services-maps:8.1.0] C:\Users\windows\Documents\ontrack-onroad-as-expert-solidcopy\app\build\intermediates\exploded-aar\com.google.android.gms\play-services-maps\8.1.0\AndroidManifest.xml:24:8-40
